<?xml version="1.0" encoding="UTF-8" standalone="no"?>
<svg
   xmlns:dc="http://purl.org/dc/elements/1.1/"
   xmlns:cc="http://creativecommons.org/ns#"
   xmlns:rdf="http://www.w3.org/1999/02/22-rdf-syntax-ns#"
   xmlns:svg="http://www.w3.org/2000/svg"
   xmlns="http://www.w3.org/2000/svg"
   xmlns:sodipodi="http://sodipodi.sourceforge.net/DTD/sodipodi-0.dtd"
   xmlns:inkscape="http://www.inkscape.org/namespaces/inkscape"
   sodipodi:docname="basic-f08.svg"
   inkscape:version="1.0beta1 (459877fba3, 2019-11-14)"
   sodipodi:version="0.32"
   id="svg2928"
   viewBox="0 0 300 36"
   height="36"
   width="300"
   version="1.1">
  <defs
     id="defs3" />
  <sodipodi:namedview
     inkscape:window-maximized="0"
     inkscape:window-y="27"
     inkscape:window-x="54"
     inkscape:window-height="1053"
     inkscape:window-width="1866"
     inkscape:guide-bbox="true"
     showguides="true"
     units="px"
     showgrid="false"
     inkscape:document-rotation="0"
     inkscape:current-layer="layer1"
     inkscape:document-units="px"
     inkscape:cy="88.075831"
     inkscape:cx="5.3541509"
     inkscape:zoom="1.4"
     inkscape:pageshadow="2"
     inkscape:pageopacity="0.0"
     borderopacity="1.0"
     bordercolor="#666666"
     pagecolor="#ffffff"
     id="base"
     inkscape:lockguides="true" />
  <metadata
     id="metadata4">
    <rdf:RDF>
      <cc:Work
         rdf:about="">
        <dc:format>image/svg+xml</dc:format>
        <dc:type
           rdf:resource="http://purl.org/dc/dcmitype/StillImage" />
        <dc:title />
      </cc:Work>
    </rdf:RDF>
  </metadata>
  <g
     id="layer1"
     inkscape:groupmode="layer"
     inkscape:label="Layer 1">
    <path
       style="font-size:12px;fill:#80765b;fill-opacity:0.749996;fill-rule:evenodd;stroke:#000000;stroke-width:0.966257pt"
       d="m 77.91705,17.305677 c 0,9.20188 -12.387558,16.661506 -27.668386,16.661506 -15.280827,0 -27.668386,-7.459626 -27.668386,-16.661506 0,-9.20188 12.387559,-16.6615057 27.668386,-16.6615057 15.280828,0 27.668386,7.4596257 27.668386,16.6615057 z"
       id="path969"
       inkscape:connector-curvature="0" />
    <path
       style="font-size:12px;fill:#d0765b;fill-opacity:0.267692;fill-rule:evenodd;stroke:#000000;stroke-width:0.966257pt"
       d="m 112.82606,17.851677 c 0,9.20188 -12.38756,16.661506 -27.668386,16.661506 -15.280827,0 -27.668386,-7.459626 -27.668386,-16.661506 0,-9.20188 12.387559,-16.6615057 27.668386,-16.6615057 15.280826,0 27.668386,7.4596257 27.668386,16.6615057 z"
       id="path970"
       inkscape:connector-curvature="0" />
    <path
       style="font-size:12px;fill:#12c097;fill-opacity:1;fill-rule:evenodd;stroke:#000000;stroke-width:0.966257pt"
       d="m 148.18006,17.851677 c 0,9.20188 -12.38756,16.661506 -27.66839,16.661506 -15.28082,0 -27.668382,-7.459626 -27.668382,-16.661506 0,-9.20188 12.387562,-16.6615057 27.668382,-16.6615057 15.28083,0 27.66839,7.4596257 27.66839,16.6615057 z"
       id="path971"
       inkscape:connector-curvature="0" />
    <path
       style="font-size:12px;fill:#e7da05;fill-opacity:1;fill-rule:evenodd;stroke:#000000;stroke-width:0.966257pt"
       d="m 181.96462,17.851677 c 0,9.20188 -12.38756,16.661506 -27.66839,16.661506 -15.28082,0 -27.66838,-7.459626 -27.66838,-16.661506 0,-9.20188 12.38756,-16.6615057 27.66838,-16.6615057 15.28083,0 27.66839,7.4596257 27.66839,16.6615057 z"
       id="path972"
       inkscape:connector-curvature="0" />
    <path
       style="font-size:12px;fill:#3d0fa1;fill-opacity:1;fill-rule:evenodd;stroke:#000000;stroke-width:0.966257pt"
       d="m 213.78282,17.851677 c 0,9.20188 -12.38756,16.661506 -27.66839,16.661506 -15.28082,0 -27.66838,-7.459626 -27.66838,-16.661506 0,-9.20188 12.38756,-16.6615057 27.66838,-16.6615057 15.28083,0 27.66839,7.4596257 27.66839,16.6615057 z"
       id="path973"
       inkscape:connector-curvature="0" />
    <path
       style="font-size:12px;fill:#6fe225;fill-opacity:0.74902;fill-rule:evenodd;stroke:#000000;stroke-width:0.966257pt"
       d="m 245.60162,17.851677 c 0,9.20188 -12.38756,16.661506 -27.66839,16.661506 -15.28082,0 -27.66838,-7.459626 -27.66838,-16.661506 0,-9.20188 12.38756,-16.6615057 27.66838,-16.6615057 15.28083,0 27.66839,7.4596257 27.66839,16.6615057 z"
       id="path974"
       inkscape:connector-curvature="0" />
    <path
       style="font-size:12px;fill:#ff3077;fill-opacity:1;fill-rule:evenodd;stroke:#000000;stroke-width:0.966257pt"
       d="m 277.41972,17.851677 c 0,9.20188 -12.38756,16.661506 -27.66839,16.661506 -15.28082,0 -27.66838,-7.459626 -27.66838,-16.661506 0,-9.20188 12.38756,-16.6615057 27.66838,-16.6615057 15.28083,0 27.66839,7.4596257 27.66839,16.6615057 z"
       id="path975"
       inkscape:connector-curvature="0" />
  </g>
</svg>
