<?xml version="1.0" encoding="UTF-8" standalone="no"?>
<!-- Created with Inkscape (http://www.inkscape.org/) -->
<svg
   xmlns:dc="http://purl.org/dc/elements/1.1/"
   xmlns:cc="http://web.resource.org/cc/"
   xmlns:rdf="http://www.w3.org/1999/02/22-rdf-syntax-ns#"
   xmlns:svg="http://www.w3.org/2000/svg"
   xmlns="http://www.w3.org/2000/svg"
   xmlns:sodipodi="http://sodipodi.sourceforge.net/DTD/sodipodi-0.dtd"
   xmlns:inkscape="http://www.inkscape.org/namespaces/inkscape"
   width="188"
   height="201.5"
   id="svg2394"
   sodipodi:version="0.32"
   inkscape:version="0.44+devel"
   sodipodi:modified="true"
   version="1.0">
  <defs
     id="defs2396" />
  <sodipodi:namedview
     id="base"
     pagecolor="#ffffff"
     bordercolor="#666666"
     borderopacity="1.0"
     gridtolerance="10000"
     guidetolerance="10"
     objecttolerance="10"
     inkscape:pageopacity="0.0"
     inkscape:pageshadow="2"
     inkscape:zoom="1"
     inkscape:cx="224"
     inkscape:cy="74"
     inkscape:document-units="px"
     inkscape:current-layer="layer1"
     inkscape:window-width="1280"
     inkscape:window-height="749"
     inkscape:window-x="0"
     inkscape:window-y="6" />
  <metadata
     id="metadata2399">
    <rdf:RDF>
      <cc:Work
         rdf:about="">
        <dc:format>image/svg+xml</dc:format>
        <dc:type
           rdf:resource="http://purl.org/dc/dcmitype/StillImage" />
      </cc:Work>
    </rdf:RDF>
  </metadata>
  <g
     inkscape:label="Layer 1"
     inkscape:groupmode="layer"
     id="layer1"
     transform="translate(-220.28571,-434.46933)">
    <path
       style="fill:none;fill-opacity:0.75;fill-rule:evenodd;stroke:#000000;stroke-width:1px;stroke-linecap:butt;stroke-linejoin:miter;stroke-opacity:1"
       d="M 260.78571,436.96933 C 241.03571,436.96933 220.78571,495.96933 220.78571,495.96933 L 260.78571,526.96933 L 299.78571,495.96933 C 299.78571,495.96933 280.53571,436.96933 260.78571,436.96933 z "
       id="path2582"
       sodipodi:nodetypes="ccccs" />
    <path
       style="fill:none;fill-opacity:0.75;fill-rule:evenodd;stroke:#000000;stroke-width:1px;stroke-linecap:butt;stroke-linejoin:miter;stroke-opacity:1"
       d="M 368.78571,545.46933 C 349.03571,545.46933 328.78571,581.96933 328.78571,604.46933 C 328.78571,626.96933 349.03571,635.46933 368.78571,635.46933 C 388.53571,635.46933 407.78571,626.96933 407.78571,604.46933 C 407.78571,581.96933 388.53571,545.46933 368.78571,545.46933 z "
       id="path2586"
       sodipodi:nodetypes="cssss" />
    <path
       style="fill:none;fill-opacity:0.75;fill-rule:evenodd;stroke:#000000;stroke-width:1px;stroke-linecap:butt;stroke-linejoin:miter;stroke-opacity:1"
       d="M 366.78571,434.96933 C 347.03571,434.96933 326.78571,471.46933 326.78571,493.96933 C 326.78571,516.46933 366.78571,524.96933 366.78571,524.96933 L 405.78571,493.96933 C 405.78571,493.96933 386.53571,434.96933 366.78571,434.96933 z "
       id="path2598"
       sodipodi:nodetypes="csccs" />
    <path
       style="fill:none;fill-opacity:0.75;fill-rule:evenodd;stroke:#000000;stroke-width:1px;stroke-linecap:butt;stroke-linejoin:miter;stroke-opacity:1"
       d="M 263.78571,545.46933 C 244.03571,545.46933 223.78571,581.96933 223.78571,604.46933 C 223.78571,626.96933 263.78571,635.46933 263.78571,635.46933 C 263.78571,635.46933 302.78571,626.96933 302.78571,604.46933 C 302.78571,581.96933 283.53571,545.46933 263.78571,545.46933 z "
       id="path2600"
       sodipodi:nodetypes="cscss" />
  </g>
</svg>
